{
    "count": 22366,
    "next": "https://rebrickable.com/api/v3/lego/sets/?key=8e01e4c3a69927e435fba246410dbc0c&page=2",
    "previous": null,
    "results": [
        {
            "set_num": "0003977811-1",
            "name": "Ninjago: Book of Adventures",
            "year": 2022,
            "theme_id": 761,
            "num_parts": 1,
            "set_img_url": "https://cdn.rebrickable.com/media/sets/0003977811-1/136318.jpg",
            "set_url": "https://rebrickable.com/sets/0003977811-1/ninjago-book-of-adventures/",
            "last_modified_dt": "2024-01-24T19:20:15.546851Z"
        }
        
    ]
}